{
  "images" : [
    {
      "idiom" : "iphone",
      "filename" : "box_3.png",
      "scale" : "1x"
    },
    {
      "idiom" : "iphone",
      "filename" : "box_3@2x.png",
      "scale" : "2x"
    },
    {
      "idiom" : "iphone",
      "filename" : "box_3@3x.png",
      "scale" : "3x"
    },
    {
      "idiom" : "ipad",
      "filename" : "white-box.png",
      "scale" : "1x"
    },
    {
      "idiom" : "ipad",
      "filename" : "white-box@2x.png",
      "scale" : "2x"
    }
  ],
  "info" : {
    "version" : 1,
    "author" : "xcode"
  }
}