{
  "images" : [
    {
      "idiom" : "iphone",
      "filename" : "send_rqst_button.png",
      "scale" : "1x"
    },
    {
      "idiom" : "iphone",
      "filename" : "send_rqst_button@2x.png",
      "scale" : "2x"
    },
    {
      "idiom" : "iphone",
      "filename" : "send_rqst_button@3x.png",
      "scale" : "3x"
    },
    {
      "idiom" : "ipad",
      "filename" : "send-request.png",
      "scale" : "1x"
    },
    {
      "idiom" : "ipad",
      "filename" : "send-request@2x.png",
      "scale" : "2x"
    }
  ],
  "info" : {
    "version" : 1,
    "author" : "xcode"
  }
}