{
  "images" : [
    {
      "idiom" : "iphone",
      "filename" : "phone_icon.png",
      "scale" : "1x"
    },
    {
      "idiom" : "iphone",
      "filename" : "phone_icon@2x.png",
      "scale" : "2x"
    },
    {
      "idiom" : "iphone",
      "filename" : "phone_icon@3x.png",
      "scale" : "3x"
    },
    {
      "idiom" : "ipad",
      "filename" : "phone.png",
      "scale" : "1x"
    },
    {
      "idiom" : "ipad",
      "filename" : "phone@2x.png",
      "scale" : "2x"
    }
  ],
  "info" : {
    "version" : 1,
    "author" : "xcode"
  }
}