{
  "images" : [
    {
      "idiom" : "iphone",
      "filename" : "email_button.png",
      "scale" : "1x"
    },
    {
      "idiom" : "iphone",
      "filename" : "email_button@2x.png",
      "scale" : "2x"
    },
    {
      "idiom" : "iphone",
      "filename" : "email_button@3x.png",
      "scale" : "3x"
    },
    {
      "idiom" : "ipad",
      "filename" : "email-button.png",
      "scale" : "1x"
    },
    {
      "idiom" : "ipad",
      "filename" : "email-button@2x.png",
      "scale" : "2x"
    }
  ],
  "info" : {
    "version" : 1,
    "author" : "xcode"
  }
}