{
  "images" : [
    {
      "idiom" : "iphone",
      "filename" : "connect-now.png",
      "scale" : "1x"
    },
    {
      "idiom" : "iphone",
      "filename" : "connect-now@2x.png",
      "scale" : "2x"
    },
    {
      "idiom" : "iphone",
      "filename" : "connect-now@3x.png",
      "scale" : "3x"
    },
    {
      "idiom" : "ipad",
      "filename" : "connect-now-1.png",
      "scale" : "1x"
    },
    {
      "idiom" : "ipad",
      "filename" : "connect-now@2x-1.png",
      "scale" : "2x"
    }
  ],
  "info" : {
    "version" : 1,
    "author" : "xcode"
  }
}