{
  "images" : [
    {
      "idiom" : "iphone",
      "filename" : "check_box(select).png",
      "scale" : "1x"
    },
    {
      "idiom" : "iphone",
      "filename" : "check_box(select)@2x.png",
      "scale" : "2x"
    },
    {
      "idiom" : "iphone",
      "filename" : "check_box(select)@3x.png",
      "scale" : "3x"
    },
    {
      "idiom" : "ipad",
      "filename" : "check_box(select)-1.png",
      "scale" : "1x"
    },
    {
      "idiom" : "ipad",
      "filename" : "check_box(select)@2x-1.png",
      "scale" : "2x"
    }
  ],
  "info" : {
    "version" : 1,
    "author" : "xcode"
  }
}