{
  "images" : [
    {
      "idiom" : "iphone",
      "filename" : "my-info.png",
      "scale" : "1x"
    },
    {
      "idiom" : "iphone",
      "filename" : "my-info@2x.png",
      "scale" : "2x"
    },
    {
      "idiom" : "iphone",
      "filename" : "my-info@3x.png",
      "scale" : "3x"
    },
    {
      "idiom" : "ipad",
      "filename" : "info-tab.png",
      "scale" : "1x"
    },
    {
      "idiom" : "ipad",
      "filename" : "info-tab@2x.png",
      "scale" : "2x"
    }
  ],
  "info" : {
    "version" : 1,
    "author" : "xcode"
  }
}