{
  "images" : [
    {
      "idiom" : "iphone",
      "filename" : "time_from_icon.png",
      "scale" : "1x"
    },
    {
      "idiom" : "iphone",
      "filename" : "time_from_icon@2x.png",
      "scale" : "2x"
    },
    {
      "idiom" : "iphone",
      "filename" : "time_from_icon@3x.png",
      "scale" : "3x"
    },
    {
      "idiom" : "ipad",
      "filename" : "fromm-icon.png",
      "scale" : "1x"
    },
    {
      "idiom" : "ipad",
      "filename" : "fromm-icon@2x.png",
      "scale" : "2x"
    }
  ],
  "info" : {
    "version" : 1,
    "author" : "xcode"
  }
}