{
  "images" : [
    {
      "idiom" : "iphone",
      "filename" : "clinic.png",
      "scale" : "1x"
    },
    {
      "idiom" : "iphone",
      "filename" : "clinic@2x.png",
      "scale" : "2x"
    },
    {
      "idiom" : "iphone",
      "filename" : "clinic@3x.png",
      "scale" : "3x"
    },
    {
      "idiom" : "ipad",
      "filename" : "client.png",
      "scale" : "1x"
    },
    {
      "idiom" : "ipad",
      "filename" : "client@2x.png",
      "scale" : "2x"
    }
  ],
  "info" : {
    "version" : 1,
    "author" : "xcode"
  }
}