{
  "images" : [
    {
      "idiom" : "iphone",
      "filename" : "prescription.png",
      "scale" : "1x"
    },
    {
      "idiom" : "iphone",
      "filename" : "prescription@2x.png",
      "scale" : "2x"
    },
    {
      "idiom" : "iphone",
      "filename" : "prescription@3x.png",
      "scale" : "3x"
    },
    {
      "idiom" : "ipad",
      "filename" : "prescription-icon.png",
      "scale" : "1x"
    },
    {
      "idiom" : "ipad",
      "filename" : "prescription-icon@2x.png",
      "scale" : "2x"
    }
  ],
  "info" : {
    "version" : 1,
    "author" : "xcode"
  }
}