{
  "images" : [
    {
      "idiom" : "iphone",
      "filename" : "join_video.png",
      "scale" : "1x"
    },
    {
      "idiom" : "iphone",
      "filename" : "join_video@2x.png",
      "scale" : "2x"
    },
    {
      "idiom" : "iphone",
      "filename" : "join-video@3x.png",
      "scale" : "3x"
    },
    {
      "idiom" : "ipad",
      "filename" : "join-video.png",
      "scale" : "1x"
    },
    {
      "idiom" : "ipad",
      "filename" : "join-video@2x.png",
      "scale" : "2x"
    }
  ],
  "info" : {
    "version" : 1,
    "author" : "xcode"
  }
}