{
  "images" : [
    {
      "idiom" : "iphone",
      "filename" : "doctor-staff.png",
      "scale" : "1x"
    },
    {
      "idiom" : "iphone",
      "filename" : "doctor-staff@2x.png",
      "scale" : "2x"
    },
    {
      "idiom" : "iphone",
      "filename" : "doctor-staff@3x.png",
      "scale" : "3x"
    },
    {
      "idiom" : "ipad",
      "filename" : "doctorstaff.png",
      "scale" : "1x"
    },
    {
      "idiom" : "ipad",
      "filename" : "doctorstaff@2x.png",
      "scale" : "2x"
    }
  ],
  "info" : {
    "version" : 1,
    "author" : "xcode"
  }
}