{
  "images" : [
    {
      "idiom" : "iphone",
      "filename" : "notification.png",
      "scale" : "1x"
    },
    {
      "idiom" : "iphone",
      "filename" : "notification@2x.png",
      "scale" : "2x"
    },
    {
      "idiom" : "iphone",
      "filename" : "notification@3x.png",
      "scale" : "3x"
    },
    {
      "idiom" : "ipad",
      "filename" : "no_notifications.png",
      "scale" : "1x"
    },
    {
      "idiom" : "ipad",
      "filename" : "no_notifications@2x.png",
      "scale" : "2x"
    }
  ],
  "info" : {
    "version" : 1,
    "author" : "xcode"
  }
}